{
  "count": 6,
  "next": "https://test.dopracenakole.cz/rest/trips/?limit=3&offset=3",
  "previous": null,
  "results": [
    {
      "distanceMeters": 5000,
      "durationSeconds": 1200,
      "commuteMode": "bicycle",
      "sourceApplication": "app",
      "trip_date": "2025-03-18",
      "sourceId": null,
      "file": null,
      "description": "Morning commute",
      "id": 1771208,
      "direction": "trip_to",
      "track": null
    },
    {
      "distanceMeters": null,
      "durationSeconds": null,
      "commuteMode": "by_foot",
      "sourceApplication": "strava",
      "trip_date": "2025-03-18",
      "sourceId": "strava_123",
      "file": null,
      "description": "Evening walk",
      "id": 1771209,
      "direction": "trip_from",
      "track": "gpx_data_here"
    },
    {
      "distanceMeters": 15000,
      "durationSeconds": 3600,
      "commuteMode": "hromadna",
      "sourceApplication": "app",
      "trip_date": "2025-03-19",
      "sourceId": null,
      "file": null,
      "description": "Bus ride to work",
      "id": 1771210,
      "direction": "trip_to",
      "track": null
    }
  ]
}
