{
  "count": 33,
  "next": "https://test.dopracenakole.cz/rest/cities?limit=20&offset=20",
  "previous": null,
  "results": [
    {
      "id": 41,
      "name": "Brandýs nad Labem",
      "slug": "brandys-nad-labem"
    },
    {
      "id": 29,
      "name": "Břeclav",
      "slug": "breclav"
    },
    {
      "id": 5,
      "name": "Brno",
      "slug": "brno"
    },
    {
      "id": 14,
      "name": "České Budějovice",
      "slug": "ceske-budejovice"
    },
    {
      "id": 15,
      "name": "Hradec Králové",
      "slug": "hradec-kralove"
    },
    {
      "id": 26,
      "name": "Hranice",
      "slug": "hranice"
    },
    {
      "id": 16,
      "name": "Jablonec nad Nisou",
      "slug": "jablonec-nad-nisou"
    },
    {
      "id": 7,
      "name": "Jihlava",
      "slug": "jihlava"
    },
    {
      "id": 17,
      "name": "Jindřichův Hradec",
      "slug": "jindrichuv-hradec"
    },
    {
      "id": 22,
      "name": "Karviná",
      "slug": "karvina"
    },
    {
      "id": 34,
      "name": "Kladno",
      "slug": "kladno"
    },
    {
      "id": 42,
      "name": "Krnov",
      "slug": "krnov"
    },
    {
      "id": 6,
      "name": "Liberec",
      "slug": "liberec"
    },
    {
      "id": 44,
      "name": "Litvínov",
      "slug": "litvinov"
    },
    {
      "id": 40,
      "name": "Most",
      "slug": "most"
    },
    {
      "id": 27,
      "name": "Nové Město nad Metují",
      "slug": "nove-mesto-nad-metuji"
    },
    {
      "id": 24,
      "name": "Nový Jičín",
      "slug": "novy-jicin"
    },
    {
      "id": 8,
      "name": "Olomouc",
      "slug": "olomouc"
    },
    {
      "id": 9,
      "name": "Ostrava",
      "slug": "ostrava"
    },
    {
      "id": 18,
      "name": "Otrokovice",
      "slug": "otrokovice"
    }
  ]
}
