{
  "count": 33,
  "next": "https://test.dopracenakole.cz/rest/merchandise/?limit=20&offset=20",
  "previous": null,
  "results": [
    {
      "id": 133,
      "name": "Triko 2024",
      "sex": "female",
      "size": "XS",
      "author": "Auto*Mat",
      "material": "Bavlna",
      "description": "Dámske triko 2024, velikost XS.",
      "t_shirt_preview": "https://dpnk-test.s3.amazonaws.com/t_shirt_preview/triko_vizualizace_dpnk_2024.jpg?AWSAccessKeyId=AKIAJ3R77G7P3TJECZ7Q&Signature=4KKJp3eFkUpAim%2F4TT12TCpSiCE%3D&Expires=2049394751",
      "available": true
    },
    {
      "id": 134,
      "name": "Triko 2024",
      "sex": "female",
      "size": "S",
      "author": "Auto*Mat",
      "material": "Bavlna",
      "description": "Dámske triko 2024, velikost S.",
      "t_shirt_preview": "https://dpnk-test.s3.amazonaws.com/t_shirt_preview/triko_vizualizace_dpnk_2024.jpg?AWSAccessKeyId=AKIAJ3R77G7P3TJECZ7Q&Signature=4KKJp3eFkUpAim%2F4TT12TCpSiCE%3D&Expires=2049394751",
      "available": true
    },
    {
      "id": 135,
      "name": "Triko 2024",
      "sex": "female",
      "size": "M",
      "author": "Auto*Mat",
      "material": "Bavlna",
      "description": "Dámske triko 2024, velikost M.",
      "t_shirt_preview": "https://dpnk-test.s3.amazonaws.com/t_shirt_preview/triko_vizualizace_dpnk_2024.jpg?AWSAccessKeyId=AKIAJ3R77G7P3TJECZ7Q&Signature=4KKJp3eFkUpAim%2F4TT12TCpSiCE%3D&Expires=2049394751",
      "available": true
    },
    {
      "id": 136,
      "name": "Triko 2024",
      "sex": "female",
      "size": "L",
      "author": "Auto*Mat",
      "material": "Bavlna",
      "description": "Dámske triko 2024, velikost L.",
      "t_shirt_preview": "https://dpnk-test.s3.amazonaws.com/t_shirt_preview/triko_vizualizace_dpnk_2024.jpg?AWSAccessKeyId=AKIAJ3R77G7P3TJECZ7Q&Signature=4KKJp3eFkUpAim%2F4TT12TCpSiCE%3D&Expires=2049394751",
      "available": true
    },
    {
      "id": 137,
      "name": "Triko 2024",
      "sex": "female",
      "size": "XL",
      "author": "Auto*Mat",
      "material": "Bavlna",
      "description": "Dámske triko 2024, velikost XL.",
      "t_shirt_preview": "https://dpnk-test.s3.amazonaws.com/t_shirt_preview/triko_vizualizace_dpnk_2024.jpg?AWSAccessKeyId=AKIAJ3R77G7P3TJECZ7Q&Signature=4KKJp3eFkUpAim%2F4TT12TCpSiCE%3D&Expires=2049394751",
      "available": true
    },
    {
      "id": 138,
      "name": "Triko 2024",
      "sex": "female",
      "size": "XXL",
      "author": "Auto*Mat",
      "material": "Bavlna",
      "description": "Dámske triko 2024, velikost XXL.",
      "t_shirt_preview": "https://dpnk-test.s3.amazonaws.com/t_shirt_preview/triko_vizualizace_dpnk_2024.jpg?AWSAccessKeyId=AKIAJ3R77G7P3TJECZ7Q&Signature=4KKJp3eFkUpAim%2F4TT12TCpSiCE%3D&Expires=2049394751",
      "available": true
    },
    {
      "id": 139,
      "name": "Triko 2024",
      "sex": "male",
      "size": "S",
      "author": "Auto*Mat",
      "material": "Bavlna",
      "description": "Pánske triko 2024, velikost S.",
      "t_shirt_preview": "https://dpnk-test.s3.amazonaws.com/t_shirt_preview/triko_vizualizace_dpnk_2024.jpg?AWSAccessKeyId=AKIAJ3R77G7P3TJECZ7Q&Signature=4KKJp3eFkUpAim%2F4TT12TCpSiCE%3D&Expires=2049394751",
      "available": true
    },
    {
      "id": 140,
      "name": "Triko 2024",
      "sex": "male",
      "size": "M",
      "author": "Auto*Mat",
      "material": "Bavlna",
      "description": "Pánske triko 2024, velikost M.",
      "t_shirt_preview": "https://dpnk-test.s3.amazonaws.com/t_shirt_preview/triko_vizualizace_dpnk_2024.jpg?AWSAccessKeyId=AKIAJ3R77G7P3TJECZ7Q&Signature=4KKJp3eFkUpAim%2F4TT12TCpSiCE%3D&Expires=2049394751",
      "available": true
    },
    {
      "id": 141,
      "name": "Triko 2024",
      "sex": "male",
      "size": "L",
      "author": "Auto*Mat",
      "material": "Bavlna",
      "description": "Pánske triko 2024, velikost L.",
      "t_shirt_preview": "https://dpnk-test.s3.amazonaws.com/t_shirt_preview/triko_vizualizace_dpnk_2024.jpg?AWSAccessKeyId=AKIAJ3R77G7P3TJECZ7Q&Signature=4KKJp3eFkUpAim%2F4TT12TCpSiCE%3D&Expires=2049394751",
      "available": true
    },
    {
      "id": 142,
      "name": "Triko 2024",
      "sex": "male",
      "size": "XL",
      "author": "Auto*Mat",
      "material": "Bavlna",
      "description": "Pánske triko 2024, velikost XL.",
      "t_shirt_preview": "https://dpnk-test.s3.amazonaws.com/t_shirt_preview/triko_vizualizace_dpnk_2024.jpg?AWSAccessKeyId=AKIAJ3R77G7P3TJECZ7Q&Signature=4KKJp3eFkUpAim%2F4TT12TCpSiCE%3D&Expires=2049394751",
      "available": true
    },
    {
      "id": 143,
      "name": "Triko 2024",
      "sex": "male",
      "size": "XXL",
      "author": "Auto*Mat",
      "material": "Bavlna",
      "description": "Pánske triko 2024, velikost XXL.",
      "t_shirt_preview": "https://dpnk-test.s3.amazonaws.com/t_shirt_preview/triko_vizualizace_dpnk_2024.jpg?AWSAccessKeyId=AKIAJ3R77G7P3TJECZ7Q&Signature=4KKJp3eFkUpAim%2F4TT12TCpSiCE%3D&Expires=2049394751",
      "available": true
    },
    {
      "id": 144,
      "name": "Triko 2024",
      "sex": "male",
      "size": "XXXL",
      "author": "Auto*Mat",
      "material": "Bavlna",
      "description": "Pánske triko 2024, velikost XXXL.",
      "t_shirt_preview": "https://dpnk-test.s3.amazonaws.com/t_shirt_preview/triko_vizualizace_dpnk_2024.jpg?AWSAccessKeyId=AKIAJ3R77G7P3TJECZ7Q&Signature=4KKJp3eFkUpAim%2F4TT12TCpSiCE%3D&Expires=2049394751",
      "available": true
    },
    {
      "id": 159,
      "name": "Triko 2023",
      "sex": "female",
      "size": "S",
      "author": "Auto*Mat",
      "material": "Bavlna",
      "description": "Dámske triko 2023, velikost S.",
      "t_shirt_preview": "https://dpnk-test.s3.amazonaws.com/t_shirt_preview/triko_vizualizace_dpnk_2023.jpg?AWSAccessKeyId=AKIAJ3R77G7P3TJECZ7Q&Signature=v%2BuNQYuB6hBoT%2F1K0fGMhNGbX1Y%3D&Expires=2049394751",
      "available": true
    },
    {
      "id": 160,
      "name": "Triko 2023",
      "sex": "female",
      "size": "M",
      "author": "Auto*Mat",
      "material": "Bavlna",
      "description": "Dámske triko 2023, velikost M.",
      "t_shirt_preview": "https://dpnk-test.s3.amazonaws.com/t_shirt_preview/triko_vizualizace_dpnk_2023.jpg?AWSAccessKeyId=AKIAJ3R77G7P3TJECZ7Q&Signature=v%2BuNQYuB6hBoT%2F1K0fGMhNGbX1Y%3D&Expires=2049394751",
      "available": true
    },
    {
      "id": 161,
      "name": "Triko 2023",
      "sex": "female",
      "size": "L",
      "author": "Auto*Mat",
      "material": "Bavlna",
      "description": "Dámske triko 2023, velikost L.",
      "t_shirt_preview": "https://dpnk-test.s3.amazonaws.com/t_shirt_preview/triko_vizualizace_dpnk_2023.jpg?AWSAccessKeyId=AKIAJ3R77G7P3TJECZ7Q&Signature=v%2BuNQYuB6hBoT%2F1K0fGMhNGbX1Y%3D&Expires=2049394751",
      "available": true
    },
    {
      "id": 162,
      "name": "Triko 2023",
      "sex": "female",
      "size": "XL",
      "author": "Auto*Mat",
      "material": "Bavlna",
      "description": "Dámske triko 2023, velikost XL.",
      "t_shirt_preview": "https://dpnk-test.s3.amazonaws.com/t_shirt_preview/triko_vizualizace_dpnk_2023.jpg?AWSAccessKeyId=AKIAJ3R77G7P3TJECZ7Q&Signature=v%2BuNQYuB6hBoT%2F1K0fGMhNGbX1Y%3D&Expires=2049394751",
      "available": true
    },
    {
      "id": 163,
      "name": "Triko 2023",
      "sex": "female",
      "size": "XXL",
      "author": "Auto*Mat",
      "material": "Bavlna",
      "description": "Dámske triko 2023, velikost XXL.",
      "t_shirt_preview": "https://dpnk-test.s3.amazonaws.com/t_shirt_preview/triko_vizualizace_dpnk_2023.jpg?AWSAccessKeyId=AKIAJ3R77G7P3TJECZ7Q&Signature=v%2BuNQYuB6hBoT%2F1K0fGMhNGbX1Y%3D&Expires=2049394751",
      "available": true
    },
    {
      "id": 164,
      "name": "Triko 2023",
      "sex": "male",
      "size": "XS",
      "author": "Auto*Mat",
      "material": "Bavlna",
      "description": "Pánske triko 2023, velikost S.",
      "t_shirt_preview": "https://dpnk-test.s3.amazonaws.com/t_shirt_preview/triko_vizualizace_dpnk_2023.jpg?AWSAccessKeyId=AKIAJ3R77G7P3TJECZ7Q&Signature=v%2BuNQYuB6hBoT%2F1K0fGMhNGbX1Y%3D&Expires=2049394751",
      "available": true
    },
    {
      "id": 165,
      "name": "Triko 2023",
      "sex": "male",
      "size": "S",
      "author": "Auto*Mat",
      "material": "Bavlna",
      "description": "Pánske triko 2023, velikost M.",
      "t_shirt_preview": "https://dpnk-test.s3.amazonaws.com/t_shirt_preview/triko_vizualizace_dpnk_2023.jpg?AWSAccessKeyId=AKIAJ3R77G7P3TJECZ7Q&Signature=v%2BuNQYuB6hBoT%2F1K0fGMhNGbX1Y%3D&Expires=2049394751",
      "available": true
    },
    {
      "id": 166,
      "name": "Triko 2023",
      "sex": "male",
      "size": "M",
      "author": "Auto*Mat",
      "material": "Bavlna",
      "description": "Pánske triko 2023, velikost L.",
      "t_shirt_preview": "https://dpnk-test.s3.amazonaws.com/t_shirt_preview/triko_vizualizace_dpnk_2023.jpg?AWSAccessKeyId=AKIAJ3R77G7P3TJECZ7Q&Signature=v%2BuNQYuB6hBoT%2F1K0fGMhNGbX1Y%3D&Expires=2049394751",
      "available": true
    },
    {
      "id": 200,
      "name": "2026 unisex",
      "sex": "female",
      "size": "XXS",
      "author": "Auto*Mat",
      "material": "Bavlna",
      "description": "Unisex triko 2026, velikost XXS.",
      "t_shirt_preview": "https://dpnk-test.s3.amazonaws.com/t_shirt_preview/triko_vizualizace_dpnk_2026.jpg",
      "available": true
    },
    {
      "id": 201,
      "name": "2026 unisex",
      "sex": "female",
      "size": "XS",
      "author": "Auto*Mat",
      "material": "Bavlna",
      "description": "Unisex triko 2026, velikost XS.",
      "t_shirt_preview": "https://dpnk-test.s3.amazonaws.com/t_shirt_preview/triko_vizualizace_dpnk_2026.jpg",
      "available": true
    },
    {
      "id": 202,
      "name": "2026 unisex",
      "sex": "female",
      "size": "S",
      "author": "Auto*Mat",
      "material": "Bavlna",
      "description": "Unisex triko 2026, velikost S.",
      "t_shirt_preview": "https://dpnk-test.s3.amazonaws.com/t_shirt_preview/triko_vizualizace_dpnk_2026.jpg",
      "available": true
    },
    {
      "id": 203,
      "name": "2026 unisex",
      "sex": "female",
      "size": "M",
      "author": "Auto*Mat",
      "material": "Bavlna",
      "description": "Unisex triko 2026, velikost M.",
      "t_shirt_preview": "https://dpnk-test.s3.amazonaws.com/t_shirt_preview/triko_vizualizace_dpnk_2026.jpg",
      "available": false
    },
    {
      "id": 204,
      "name": "2026 unisex",
      "sex": "male",
      "size": "XXS",
      "author": "Auto*Mat",
      "material": "Bavlna",
      "description": "Unisex triko 2026, velikost XXS.",
      "t_shirt_preview": "https://dpnk-test.s3.amazonaws.com/t_shirt_preview/triko_vizualizace_dpnk_2026.jpg",
      "available": true
    },
    {
      "id": 205,
      "name": "2026 unisex",
      "sex": "male",
      "size": "XS",
      "author": "Auto*Mat",
      "material": "Bavlna",
      "description": "Unisex triko 2026, velikost XS.",
      "t_shirt_preview": "https://dpnk-test.s3.amazonaws.com/t_shirt_preview/triko_vizualizace_dpnk_2026.jpg",
      "available": true
    },
    {
      "id": 206,
      "name": "2026 unisex",
      "sex": "male",
      "size": "S",
      "author": "Auto*Mat",
      "material": "Bavlna",
      "description": "Unisex triko 2026, velikost S.",
      "t_shirt_preview": "https://dpnk-test.s3.amazonaws.com/t_shirt_preview/triko_vizualizace_dpnk_2026.jpg",
      "available": true
    },
    {
      "id": 207,
      "name": "2026 unisex",
      "sex": "male",
      "size": "M",
      "author": "Auto*Mat",
      "material": "Bavlna",
      "description": "Unisex triko 2026, velikost M.",
      "t_shirt_preview": "https://dpnk-test.s3.amazonaws.com/t_shirt_preview/triko_vizualizace_dpnk_2026.jpg",
      "available": false
    }
  ]
}
